{
  "/api/v1/pic-catch": {
    "target": "http://192.168.1.117:5000",
    "secure": false,
    "changeOrigin": true
  },
  "/api/v1": {
    "target": "https://xn--27v152d7jr.cc/gin-pokergame-api",
    "secure": false,
    "changeOrigin": true
  },
  "/ccat": {
    "target": "http://localhost:5024",
    "secure": false,
    "changeOrigin": true,
    "pathRewrite": {
      "^/ccat": ""
    }
  },
  "/grpc": {
    "target": "http://localhost:8081",
    "secure": false,
    "changeOrigin": true
  }
}