<svg id="iphone" xmlns="http://www.w3.org/2000/svg" width="14.061" height="19.998" viewBox="0 0 14.061 19.998">
  <g id="组_946" data-name="组 946" transform="translate(0)">
    <path id="路径_399" data-name="路径 399" d="M87.718,0H78.344A2.346,2.346,0,0,0,76,2.344V17.655A2.346,2.346,0,0,0,78.344,20h9.374a2.346,2.346,0,0,0,2.344-2.344V2.344A2.346,2.346,0,0,0,87.718,0ZM88.5,17.655a.782.782,0,0,1-.781.781H78.344a.782.782,0,0,1-.781-.781V2.344a.782.782,0,0,1,.781-.781h1.392l.163.484a.781.781,0,0,0,.74.532h4.785a.781.781,0,0,0,.74-.532l.163-.484h1.392a.782.782,0,0,1,.781.781Z" transform="translate(-76)" fill="#616161"/>
  </g>
</svg>
