<svg xmlns="http://www.w3.org/2000/svg" width="17.494" height="17.772" viewBox="0 0 17.494 17.772">
  <g id="Beauty_Hand_Cream" data-name="Beauty Hand Cream" transform="translate(0 -0.004)">
    <g id="Glyph" transform="translate(0 0.004)">
      <path id="路径_451" data-name="路径 451" d="M261.087,2.107c-.763-1.1-1.537-2-1.545-2.006a.278.278,0,0,0-.421,0c-.008.009-.782.909-1.545,2.006A7.156,7.156,0,0,0,256,5.527a3.332,3.332,0,1,0,6.664,0A7.156,7.156,0,0,0,261.087,2.107Zm-1.755,5.672a.278.278,0,1,1,.278-.278A.278.278,0,0,1,259.332,7.779Zm1.271-.406a.278.278,0,1,1-.321-.453A1.71,1.71,0,0,0,261,5.527a.278.278,0,1,1,.555,0A2.266,2.266,0,0,1,260.6,7.373Z" transform="translate(-247.114 -0.004)" fill="#616161"/>
      <path id="路径_452" data-name="路径 452" d="M292.836,379.978l-.009-.018a1.609,1.609,0,0,0-2.186-.664l-2.379,1.269-.048.023-2.938,1.336,5.564,1.78a.278.278,0,0,0,.333-.14,1.355,1.355,0,0,0-.783-1.891l-.009,0-1.427-.421,3.7-.871a.278.278,0,0,0,.214-.254A.282.282,0,0,0,292.836,379.978Z" transform="translate(-275.374 -365.945)" fill="#616161"/>
      <path id="路径_453" data-name="路径 453" d="M12.626,250.1l4.165-2.221a.278.278,0,0,0,.145-.28.284.284,0,0,0-.057-.136l-.015-.02a1.759,1.759,0,0,0-2.574-.2c-.9.824-2.641,2.411-2.641,2.411a.836.836,0,0,1-.361.181l-2.367.263a.282.282,0,0,1-.071-.559c.779-.114,2.407-.279,2.438-.306l3.07-2.791a.278.278,0,0,0,0-.393,1.458,1.458,0,0,0-2.042-.017l-1.874,1.338-.712.119c-.914-.772-1.951-1.649-2.058-1.736a5.862,5.862,0,0,0-3.188-1.259,8.872,8.872,0,0,0-3.456.38h0l-.833.273a.278.278,0,0,0-.191.264v3.055a.278.278,0,0,0,.278.278h1.6s5.853,2.777,5.894,2.777H9.556l3.056-1.414Z" transform="translate(0 -235.971)" fill="#616161"/>
    </g>
  </g>
</svg>
