<svg id="donate_record" xmlns="http://www.w3.org/2000/svg" width="13.881" height="13.881" viewBox="0 0 13.881 13.881">
  <g id="Group_402" data-name="Group 402">
    <g id="Group_401" data-name="Group 401">
      <path id="Path_921" data-name="Path 921" d="M11.848,2.033a6.94,6.94,0,1,0-9.815,9.815,6.94,6.94,0,1,0,9.815-9.815ZM6.94,12.227A5.286,5.286,0,1,1,12.227,6.94,5.292,5.292,0,0,1,6.94,12.227Z" transform="translate(0 0)"/>
    </g>
  </g>
  <g id="Group_404" data-name="Group 404" transform="translate(2.467 2.467)">
    <g id="Group_403" data-name="Group 403">
      <path id="Path_922" data-name="Path 922" d="M95.476,91a4.473,4.473,0,1,0,4.473,4.473A4.478,4.478,0,0,0,95.476,91Zm1.012,6.465a1.422,1.422,0,0,1-.632.3v.646a.407.407,0,0,1-.813,0V97.79a1.831,1.831,0,0,1-.652-.218q-.425-.244-.425-.531a.487.487,0,0,1,.109-.291.309.309,0,0,1,.247-.147.32.32,0,0,1,.184.078,2.151,2.151,0,0,1,.2.172.916.916,0,0,0,.278.172,1,1,0,0,0,.4.078.862.862,0,0,0,.5-.137.461.461,0,0,0,.2-.406.546.546,0,0,0-.109-.334.872.872,0,0,0-.287-.244q-.178-.1-.391-.187t-.428-.2a2.5,2.5,0,0,1-.394-.253,1.012,1.012,0,0,1-.287-.375,1.368,1.368,0,0,1,.025-1.127,1.021,1.021,0,0,1,.359-.4,1.685,1.685,0,0,1,.471-.206v-.72a.407.407,0,0,1,.813,0v.664l.085.009a3.182,3.182,0,0,1,.384.074.811.811,0,0,1,.331.16.328.328,0,0,1,.128.257.568.568,0,0,1-.088.288.266.266,0,0,1-.238.149,1.176,1.176,0,0,1-.306-.119,1.281,1.281,0,0,0-.556-.119.907.907,0,0,0-.522.128.407.407,0,0,0-.184.353.411.411,0,0,0,.15.316,1.176,1.176,0,0,0,.372.219q.222.084.481.212a4.11,4.11,0,0,1,.481.278,1.167,1.167,0,0,1,.372.434,1.407,1.407,0,0,1,.15.666A1.227,1.227,0,0,1,96.489,97.468Z" transform="translate(-91.003 -91.003)"/>
    </g>
  </g>
</svg>
