<svg id="game_betting" xmlns="http://www.w3.org/2000/svg" width="14.017" height="14.017" viewBox="0 0 14.017 14.017">
  <g id="Group_381" data-name="Group 381" transform="translate(2.379)">
    <g id="Group_380" data-name="Group 380">
      <path id="Path_906" data-name="Path 906" d="M86.882,1.8l1.741,1.741A4.5,4.5,0,0,1,91.1,2.512V0A6.992,6.992,0,0,0,86.882,1.8Z" transform="translate(-86.882)"/>
    </g>
  </g>
  <g id="Group_387" data-name="Group 387" transform="translate(0 2.379)">
    <g id="Group_386" data-name="Group 386">
      <path id="Path_909" data-name="Path 909" d="M1.8,86.882A6.992,6.992,0,0,0,0,91.1H2.512a4.5,4.5,0,0,1,1.027-2.478Z" transform="translate(0 -86.882)"/>
    </g>
  </g>
  <g id="Group_389" data-name="Group 389" transform="translate(7.419)">
    <g id="Group_388" data-name="Group 388">
      <path id="Path_910" data-name="Path 910" d="M271,0V2.512a4.5,4.5,0,0,1,2.478,1.027L275.219,1.8A6.993,6.993,0,0,0,271,0Z" transform="translate(-271)"/>
    </g>
  </g>
  <g id="Group_391" data-name="Group 391" transform="translate(0 7.419)">
    <g id="Group_390" data-name="Group 390">
      <path id="Path_911" data-name="Path 911" d="M2.512,271H0a6.992,6.992,0,0,0,1.8,4.219l1.741-1.742A4.5,4.5,0,0,1,2.512,271Z" transform="translate(0 -271)"/>
    </g>
  </g>
  <g id="Group_393" data-name="Group 393" transform="translate(10.478 7.419)">
    <g id="Group_392" data-name="Group 392">
      <path id="Path_912" data-name="Path 912" d="M383.745,271a4.5,4.5,0,0,1-1.027,2.478l1.741,1.742a6.992,6.992,0,0,0,1.8-4.219Z" transform="translate(-382.718 -271)"/>
    </g>
  </g>
  <g id="Group_395" data-name="Group 395" transform="translate(7.419 10.478)">
    <g id="Group_394" data-name="Group 394">
      <path id="Path_913" data-name="Path 913" d="M273.478,382.718A4.5,4.5,0,0,1,271,383.745v2.512a6.993,6.993,0,0,0,4.219-1.8Z" transform="translate(-271 -382.718)"/>
    </g>
  </g>
  <g id="Group_397" data-name="Group 397" transform="translate(2.379 10.478)">
    <g id="Group_396" data-name="Group 396">
      <path id="Path_914" data-name="Path 914" d="M88.623,382.718l-1.741,1.741a6.992,6.992,0,0,0,4.219,1.8v-2.512A4.5,4.5,0,0,1,88.623,382.718Z" transform="translate(-86.882 -382.718)"/>
    </g>
  </g>
  <g id="Group_399" data-name="Group 399" transform="translate(10.478 2.379)">
    <g id="Group_398" data-name="Group 398">
      <path id="Path_915" data-name="Path 915" d="M384.46,86.882l-1.741,1.741a4.5,4.5,0,0,1,1.027,2.478h2.512A6.992,6.992,0,0,0,384.46,86.882Z" transform="translate(-382.718 -86.882)"/>
    </g>
  </g>
  <circle id="Ellipse_7" data-name="Ellipse 7" cx="3.598" cy="3.598" r="3.598" transform="translate(3.41 3.41)"/>
</svg>
