<svg id="item_settings" xmlns="http://www.w3.org/2000/svg" width="12.2" height="12.2" viewBox="0 0 12.2 12.2">
  <path id="Path_931" data-name="Path 931" d="M4.7,0H.89A.891.891,0,0,0,0,.89V3.177a.891.891,0,0,0,.89.89H4.7a.891.891,0,0,0,.89-.89V.89A.891.891,0,0,0,4.7,0Zm0,0"/>
  <path id="Path_932" data-name="Path 932" d="M4.7,213.332H.89a.891.891,0,0,0-.89.89v5.337a.891.891,0,0,0,.89.89H4.7a.891.891,0,0,0,.89-.89v-5.337A.891.891,0,0,0,4.7,213.332Zm0,0" transform="translate(0 -208.249)"/>
  <path id="Path_933" data-name="Path 933" d="M282.034,341.332h-3.812a.891.891,0,0,0-.89.89v2.287a.891.891,0,0,0,.89.89h3.812a.891.891,0,0,0,.889-.89v-2.287A.891.891,0,0,0,282.034,341.332Zm0,0" transform="translate(-270.724 -333.199)"/>
  <path id="Path_934" data-name="Path 934" d="M282.034,0h-3.812a.891.891,0,0,0-.89.89V6.227a.891.891,0,0,0,.89.89h3.812a.891.891,0,0,0,.889-.89V.89A.891.891,0,0,0,282.034,0Zm0,0" transform="translate(-270.724)"/>
</svg>
