<svg id="limit_of_credit" xmlns="http://www.w3.org/2000/svg" width="16.067" height="12.228" viewBox="0 0 16.067 12.228">
  <path id="Path_916" data-name="Path 916" d="M2.895,67.042a7.052,7.052,0,0,1,3.513-6.107,6.114,6.114,0,1,0,0,12.214,7.052,7.052,0,0,1-3.513-6.107Z" transform="translate(0 -60.928)"/>
  <path id="Path_917" data-name="Path 917" d="M127.994,60.94a6.114,6.114,0,1,0,6.114,6.114A6.121,6.121,0,0,0,127.994,60.94Zm.473,9.293v.7a.473.473,0,0,1-.945,0v-.7a2.377,2.377,0,0,1-1.572-.394.473.473,0,0,1,.539-.777,1.21,1.21,0,0,0,.674.226h1.586a.881.881,0,0,0,0-1.762H127.24a1.828,1.828,0,0,1-1.826-1.826,1.849,1.849,0,0,1,2.107-1.826v-.7a.473.473,0,1,1,.945,0v.7a2.352,2.352,0,0,1,1,.152h0a2.193,2.193,0,0,1,.792.544h0a.473.473,0,0,1-.7.639,1.211,1.211,0,0,0-.865-.39H127.24a.881.881,0,0,0,0,1.762h1.507a1.828,1.828,0,0,1,1.826,1.826A1.852,1.852,0,0,1,128.466,70.233Z" transform="translate(-118.04 -60.94)"/>
</svg>
