<svg id="logout" xmlns="http://www.w3.org/2000/svg" width="14.058" height="14.058" viewBox="0 0 14.058 14.058">
  <g id="Group_321" data-name="Group 321">
    <path id="Path_872" data-name="Path 872" d="M12.5,0H1.562A1.562,1.562,0,0,0,0,1.562V4.686H1.562V1.562H12.5V12.5H1.562V9.372H0V12.5a1.562,1.562,0,0,0,1.562,1.562H12.5A1.562,1.562,0,0,0,14.058,12.5V1.562A1.562,1.562,0,0,0,12.5,0Z"/>
    <path id="Path_873" data-name="Path 873" d="M5.534,92.038l1.105,1.105,3.905-3.905L6.639,85.333,5.534,86.438l2.019,2.019H0v1.562H7.552Z" transform="translate(0 -82.209)"/>
  </g>
</svg>
