<svg xmlns="http://www.w3.org/2000/svg" width="9.026" height="15.363" viewBox="0 0 9.026 15.363">
  <g id="next" transform="translate(-101.478)">
    <g id="组_936" data-name="组 936" transform="translate(101.478)">
      <path id="路径_370" data-name="路径 370" d="M110.259,7.082,103.422.245a.842.842,0,0,0-1.189,0l-.5.5a.841.841,0,0,0,0,1.189l5.741,5.741-5.748,5.748a.842.842,0,0,0,0,1.189l.5.5a.842.842,0,0,0,1.189,0l6.843-6.843a.848.848,0,0,0,0-1.193Z" transform="translate(-101.478 0)" fill="#616161"/>
    </g>
  </g>
</svg>
