<svg xmlns="http://www.w3.org/2000/svg" width="19.32" height="16.098" viewBox="0 0 19.32 16.098">
  <g id="tv" transform="translate(0 -42.699)">
    <g id="组_950" data-name="组 950" transform="translate(0 42.699)">
      <path id="路径_410" data-name="路径 410" d="M18.111,42.7H1.207A1.209,1.209,0,0,0,0,43.906V55.176a1.209,1.209,0,0,0,1.207,1.207H8.049v.866L3.556,58a.4.4,0,0,0,.066.8.383.383,0,0,0,.067-.006l4.8-.8h2.349l4.8.8a.373.373,0,0,0,.067.006.4.4,0,0,0,.066-.8l-4.493-.749v-.866h6.842a1.209,1.209,0,0,0,1.207-1.207V43.906A1.211,1.211,0,0,0,18.111,42.7Zm-.4,12.074H1.61V44.309h16.1V54.773Z" transform="translate(0 -42.699)" fill="#616161"/>
    </g>
  </g>
</svg>
